Lab 1 - Julia Code — Causal Inference and ML Course
…
# # Set endogenous variable (response variable)
# y = data[!, "lwage"]

function partitionTrainTest(data, at = 0.7)
    n = nrow(data)
    idx = shuffle(1:n)
    train_idx = view(idx, 1:floor(Int, at*n))
    test_idx = view(idx, (floor(Int, at*n)+1):n)
    data[train_idx,:], data[test_idx,:]
end

iris = dataset("datasets", "iris")
X_train,X_test = partitionTrainTest(iris, 0.7) # 70% train

(105×5 DataFrame
 Row │ SepalLength  SepalWidth  PetalLength  PetalWidth  Species    
     │ Float64      Float64     Float64      Float64     Cat…       
─────┼──────────────────────────────────────────────────────────────
   1 │         6.1         3.0          4.9         1.8  virginica
   2 │         5.5         2.6          4.4         1.2  versicolor
   3 │         5.6         2.7          4.2         1.3  versicolor
   4 │         5.3         3.7          1.5         0.2  setosa
   5 │         6.2         2.2          4.5         1.5  versicolor
   6 │         7.7         3.8          6.7         2.2  virginica
   7 │         6.5         2.8          4.6         1.5  versicolor
   8 │         6.6         2.9          4.6         1.3  versicolor
   9 │         5.5         3.5          1.3         0.2  setosa
  10 │         6.0         2.9          4.5         1.5  versicolor
  11 │         5.5         2.3          4.0         1.3  versicolor
  ⋮  │      ⋮           ⋮            ⋮           ⋮           ⋮
  96 │         5.8         2.7          5.1         1.9  virginica
  97 │         7.6         3.0          6.6         2.1  virginica
  98 │         6.5         3.0          5.5         1.8  virginica
  99 │         6.7         3.1          4.4         1.4  versicolor
 100 │         5.6         2.9          3.6         1.3  versicolor
 101 │         6.8         3.0          5.5         2.1  virginica
 102 │         6.1         3.0          4.6         1.4  versicolor
 103 │         5.2         3.4          1.4         0.2  setosa
 104 │         6.5         3.0          5.8         2.2  virginica
 105 │         6.2         2.8          4.8         1.8  virginica
                                                     84 rows omitted, 45×5 DataFrame
…
